รหัส,ชื่อ-สกุล,แผนก,เลขที่บัญชี,อัตรา,เงินเดือน,,ค่าล่วงเวลา 1 เท่า,,ค่าล่วงเวลา 1.5เท่า,,ค่าล่วงเวลา 2 เท่า,,ค่าล่วงเวลา 3 เท่า,,ค่าล่วงเวลาอื่นๆ,สวัสดิการอื่นๆ,เงินได้จากหน้าที่,เงินรางวัลพิเศษ,เงินได้อื่นๆ,รวมเงินได้,หักขาดงาน,หักลาป่วย,หักมาสาย,หักลากิจ,หักลาอื่นๆ,หักสวัสดิการ,หักจ่ายอื่นๆ,หักประกันแรกเข้า,หักเงินกู้,หักกองทุนสำรองเลี้ยงชีพ,หักสมทบประกันสังคม,หักภาษี,รวมหัก,สุทธิ,เงินได้สะสมต่อปี,ภาษีสะสมต่อปี,เงินสะสมกองทุนต่อปี,เงินประกันสังคมต่อปี,ค่าลดหย่อนอื่น ๆ
10010,น.ส.สุวาลี  พึ่งแย้ม,งานจัดซื้อจัดจ้าง,0400395737,"15,000.00",31.00,"15,000.00",0.00,0.00,0.00,0.00,0.00,0.00,0.00,0.00,0.00,50.00,"5,000.00",100.00,0.00,"20,150.00",0.00,0.00,0.00,0.00,0.00,0.00,0.00,0.00,0.00,"1,090.35",75.00,218.00,"1,383.35","18,766.65","45,000.00",654.00,"3,271.05",225.00,0.00
10058,นายณัฐวุฒิ  ประสานทอง ,งานจัดซื้อจัดจ้าง,0100451384,"15,000.00",31.00,"15,000.00",5.00,513.00,9.00,"1,384.00",0.00,0.00,0.00,0.00,0.00,60.00,"6,000.00",200.00,0.00,"23,157.00",0.00,0.00,0.00,0.00,0.00,0.00,0.00,0.00,0.00,738.00,75.00,0.00,813.00,"22,344.00","46,000.00",0.00,"2,214.00",225.00,0.00
10099,น.ส.ศิรภัสสร  แซ่แต้,งานจัดซื้อจัดจ้าง,9230155138,"15,000.00",31.00,"15,000.00",0.00,0.00,0.00,0.00,0.00,0.00,0.00,0.00,0.00,70.00,"7,000.00",300.00,0.00,"22,370.00",0.00,0.00,0.00,0.00,0.00,0.00,0.00,0.00,0.00,"1,300.00",75.00,0.00,"1,375.00","20,995.00","47,000.00",5.00,"2,600.00",225.00,0.00
10112,น.ส.จิราวรรณ  บริบูรณ์,งานจัดซื้อจัดจ้าง,2325343677,"15,000.00",31.00,"15,000.00",0.00,0.00,0.00,0.00,0.00,0.00,0.00,0.00,0.00,80.00,"8,000.00",400.00,0.00,"23,480.00",0.00,0.00,0.00,0.00,0.00,0.00,0.00,0.00,0.00,0.00,75.00,"2,285.00","2,360.00","21,120.00","48,000.00","4,570.00",0.00,150.00,0.00
10035,นายอภินันท์  ไวยศิลป์,งานทรัพยากรบุคคลและธุรการ,0377012851,"15,000.00",31.00,"15,000.00",0.00,0.00,0.00,0.00,0.00,0.00,0.00,0.00,0.00,90.00,"9,000.00",500.00,0.00,"24,590.00",0.00,0.00,0.00,0.00,0.00,0.00,0.00,0.00,0.00,922.05,75.00,196.00,"1,193.05","23,396.95","49,000.00",588.00,"2,766.15",225.00,0.00
10094,น.ส.หทัยชนก  กอหาญ,งานทรัพยากรบุคคลและธุรการ,2384907099,"15,000.00",31.00,"15,000.00",0.00,0.00,0.00,0.00,0.00,0.00,0.00,0.00,0.00,100.00,"10,000.00",600.00,0.00,"25,700.00",0.00,0.00,0.00,0.00,0.00,0.00,0.00,0.00,0.00,"1,410.00",75.00,485.00,"1,970.00","23,730.00","50,000.00","1,814.00","4,230.00",225.00,0.00
10041,นายธนวัฒน์  โสภิตภักดีพงษ์,งานเทคโนโลยีสารสนเทศ,9047131827,"15,000.00",31.00,"15,000.00",0.00,0.00,0.00,0.00,0.00,0.00,0.00,0.00,0.00,110.00,"11,000.00",700.00,0.00,"26,810.00",0.00,0.00,0.00,0.00,0.00,0.00,0.00,0.00,0.00,774.90,75.00,0.00,849.90,"25,960.10","51,000.00",0.00,"2,324.70",225.00,0.00
10088,นายกตัญญู  เฮ้งกุล,งานเทคโนโลยีสารสนเทศ,0050410976,"15,000.00",31.00,"15,000.00",0.00,0.00,0.00,0.00,0.00,0.00,0.00,0.00,0.00,120.00,"12,000.00",800.00,0.00,"27,920.00",0.00,0.00,0.00,0.00,0.00,0.00,0.00,0.00,0.00,"1,150.00",75.00,0.00,"1,225.00","26,695.00","52,000.00",0.00,"3,450.00",225.00,0.00
10097,น.ส.ศิริพร  บำรุงบุญ,งานอาชีวอนามัยและความปลอดภัย,9400790862,"15,000.00",31.00,"15,000.00",0.00,0.00,0.00,0.00,0.00,0.00,0.00,0.00,0.00,130.00,"13,000.00",900.00,"3,000.00","32,030.00",0.00,0.00,0.00,0.00,0.00,0.00,0.00,0.00,0.00,"1,250.00",75.00,48.00,"1,373.00","30,657.00","53,000.00",201.00,"2,500.00",225.00,0.00
10003,น.ส.ภารวี  กิจธำรงวรกุล,ฝ่ายปฎิบัติการ-ด้านการผลิต,0377324181,"15,000.00",31.00,"15,000.00",0.00,0.00,0.00,0.00,0.00,0.00,0.00,0.00,0.00,140.00,"14,000.00","1,000.00",0.00,"30,140.00",0.00,0.00,0.00,0.00,0.00,0.00,0.00,0.00,0.00,"2,538.90",75.00,762.00,"3,375.90","26,764.10","54,000.00","2,590.00","7,495.80",225.00,0.00
10004,น.ส.พัณณิดา  กิจกอบชัย,ฝ่ายปฎิบัติการ-ด้านการผลิต,0377324199,"15,000.00",31.00,"15,000.00",13.50,"2,575.00",4.25,"1,216.00",0.00,0.00,4.75,"2,718.00",0.00,150.00,"15,000.00","1,100.00",0.00,"37,759.00",0.00,0.00,0.00,0.00,0.00,0.00,0.00,0.00,0.00,"3,662.40",75.00,"1,308.00","5,045.40","32,713.60","55,000.00","4,396.00","10,987.20",225.00,"40,700.00"
10005,น.ส.ศิรินภา  พันธะไชย,ฝ่ายปฎิบัติการ-ด้านการผลิต,0377324215,"15,000.00",31.00,"15,000.00",0.00,0.00,0.00,0.00,0.00,0.00,0.00,0.00,0.00,160.00,"16,000.00","1,200.00",0.00,"32,360.00",0.00,0.00,0.00,0.00,0.00,0.00,0.00,0.00,0.00,"1,245.51",75.00,812.00,"2,132.51","30,227.49","56,000.00","2,445.00","3,677.22",225.00,0.00
10006,น.ส.ทัศนีย์  สายวิชัย,ฝ่ายปฎิบัติการ-ด้านการผลิต,0377332044,"15,000.00",31.00,"15,000.00",0.00,0.00,0.00,0.00,0.00,0.00,0.00,0.00,0.00,170.00,"17,000.00","1,300.00",0.00,"33,470.00",0.00,0.00,0.00,0.00,0.00,0.00,0.00,0.00,0.00,"1,441.62",75.00,"1,408.00","2,924.62","30,545.38","57,000.00","4,224.00","4,324.86",225.00,"4,572.00"
10011,น.ส.อริศรา  พิมใจ,ฝ่ายปฎิบัติการ-ด้านการผลิต,0377324223,"15,000.00",31.00,"15,000.00",0.00,0.00,0.00,0.00,0.00,0.00,0.00,0.00,0.00,180.00,"18,000.00","1,400.00",0.00,"34,580.00",0.00,0.00,0.00,0.00,0.00,0.00,0.00,0.00,0.00,0.00,75.00,903.00,978.00,"33,602.00","58,000.00","2,709.00",0.00,225.00,0.00
10012,นายกิตติพงษ์  มิตรขุนทด,ฝ่ายปฎิบัติการ-ด้านการผลิต,0377324231,"15,000.00",31.00,"15,000.00",0.00,0.00,0.00,0.00,0.00,0.00,0.00,0.00,0.00,190.00,"19,000.00","1,500.00",0.00,"35,690.00",0.00,0.00,0.00,0.00,0.00,0.00,0.00,0.00,0.00,0.00,75.00,"1,236.00","1,311.00","34,379.00","59,000.00","5,692.00",0.00,225.00,0.00
10013,น.ส.ละออง  เกื้อหนองขุ่น,ฝ่ายปฎิบัติการ-ด้านการผลิต,2384832545,"15,000.00",31.00,"15,000.00",7.00,"1,328.00",8.00,"2,276.00",0.00,0.00,2.50,"1,423.00",0.00,200.00,"20,000.00","1,600.00",0.00,"41,827.00",0.00,0.00,0.00,0.00,0.00,0.00,0.00,0.00,0.00,"2,276.00",75.00,"1,398.00","3,749.00","38,078.00","60,000.00","5,052.00","6,828.00",225.00,"25,656.00"
10018,นายปรัชญา  เจตินัย,ฝ่ายปฎิบัติการ-ด้านการผลิต,0377332085,"15,000.00",31.00,"15,000.00",0.00,0.00,0.00,0.00,0.00,0.00,0.00,0.00,0.00,210.00,"21,000.00","1,700.00","10,000.00","47,910.00",0.00,0.00,0.00,0.00,0.00,0.00,0.00,0.00,0.00,"3,080.25",75.00,"4,310.00","7,465.25","40,444.75","61,000.00","12,930.00","9,240.75",225.00,0.00
10025,นายระวี  สิงห์สถิตย์,ฝ่ายปฎิบัติการ-ด้านการผลิต,0377324306,"15,000.00",31.00,"15,000.00",0.00,0.00,0.00,0.00,0.00,0.00,0.00,0.00,0.00,220.00,"22,000.00","1,800.00",0.00,"39,020.00",0.00,0.00,0.00,0.00,0.00,0.00,0.00,0.00,0.00,"1,693.40",75.00,314.00,"2,082.40","36,937.60","62,000.00",945.00,"4,999.55",225.00,0.00
10026,น.ส.ภัคศรัณย์  ยุทธ์ธนอุดม,ฝ่ายปฎิบัติการ-ด้านการผลิต,0377324314,"15,000.00",31.00,"15,000.00",0.00,0.00,0.00,0.00,0.00,0.00,0.00,0.00,0.00,230.00,"23,000.00","1,900.00",0.00,"40,130.00",0.00,0.00,0.00,0.00,0.00,0.00,0.00,0.00,0.00,"1,622.80",75.00,247.00,"1,944.80","38,185.20","63,000.00",744.00,"4,791.10",225.00,0.00
10027,นายอนันต์  แจ่มใสดี,ฝ่ายปฎิบัติการ-ด้านการผลิต,6300088074,"15,000.00",31.00,"15,000.00",0.00,0.00,0.00,0.00,0.00,0.00,0.00,0.00,0.00,240.00,"24,000.00","2,000.00",0.00,"41,240.00",0.00,0.00,0.00,0.00,0.00,0.00,0.00,0.00,0.00,0.00,75.00,244.00,319.00,"40,921.00","64,000.00","1,205.00",0.00,225.00,0.00
10028,นางชยาภรณ์  จารุศิริ,ฝ่ายปฎิบัติการ-ด้านการผลิต,0330893751,"15,000.00",31.00,"15,000.00",0.00,0.00,0.00,0.00,0.00,0.00,0.00,0.00,0.00,250.00,"25,000.00","2,100.00",0.00,"42,350.00",0.00,0.00,0.00,0.00,0.00,0.00,0.00,0.00,0.00,"2,069.00",75.00,490.00,"2,634.00","39,716.00","65,000.00","1,470.00","6,207.00",225.00,"43,343.00"
10042,น.ส.ดลพรรณ  พูลเพิ่ม,ฝ่ายปฎิบัติการ-ด้านการผลิต,0330983107,"15,000.00",31.00,"15,000.00",0.00,0.00,0.00,0.00,0.00,0.00,0.00,0.00,0.00,260.00,"26,000.00","2,200.00",0.00,"43,460.00",0.00,0.00,0.00,0.00,0.00,0.00,0.00,0.00,0.00,774.90,75.00,0.00,849.90,"42,610.10","66,000.00",0.00,"2,324.70",225.00,0.00
10043,นายนวกร  ฉายลิ้ม,ฝ่ายปฎิบัติการ-ด้านการผลิต,9299050527,"15,000.00",31.00,"15,000.00",0.00,0.00,0.00,0.00,0.00,0.00,0.00,0.00,0.00,270.00,"27,000.00","2,300.00",0.00,"44,570.00",0.00,0.00,0.00,0.00,0.00,0.00,0.00,0.00,0.00,774.90,75.00,0.00,849.90,"43,720.10","67,000.00",0.00,"2,324.70",225.00,0.00
10045,น.ส.จุลมาตฤ  วิรภากร,ฝ่ายปฎิบัติการ-ด้านการผลิต,9090655102,"15,000.00",31.00,"15,000.00",0.00,0.00,0.00,0.00,0.00,0.00,0.00,0.00,0.00,280.00,"28,000.00","2,400.00",0.00,"45,680.00",0.00,0.00,0.00,0.00,0.00,0.00,0.00,0.00,0.00,907.20,75.00,172.00,"1,154.20","44,525.80","68,000.00",516.00,"2,721.60",225.00,0.00
10059,น.ส.จิราพร  มากสุริวงศ์,ฝ่ายปฎิบัติการ-ด้านการผลิต,0400427746,"15,000.00",31.00,"15,000.00",0.00,0.00,0.00,0.00,0.00,0.00,0.00,0.00,0.00,290.00,"29,000.00","2,500.00",0.00,"46,790.00",0.00,0.00,0.00,0.00,0.00,0.00,0.00,0.00,0.00,774.90,75.00,0.00,849.90,"45,940.10","69,000.00",0.00,"2,324.70",225.00,0.00
10060,นายอานนท์   ฤกษ์งาม,ฝ่ายปฎิบัติการ-ด้านการผลิต,0100447374,"15,000.00",31.00,"15,000.00",0.00,0.00,0.00,0.00,0.00,0.00,3.00,"1,134.00",0.00,300.00,"30,000.00","2,600.00",0.00,"49,034.00",0.00,0.00,0.00,0.00,0.00,0.00,0.00,0.00,0.00,907.20,75.00,228.00,"1,210.20","47,823.80","70,000.00","1,693.00","2,721.60",225.00,0.00
10062,น.ส.เมสิยาห์พร  อิสระวาณิชย์,ฝ่ายปฎิบัติการ-ด้านการผลิต,2384844946,"15,000.00",31.00,"15,000.00",0.00,0.00,0.00,0.00,0.00,0.00,0.00,0.00,0.00,310.00,"31,000.00","2,700.00",0.00,"49,010.00",0.00,0.00,0.00,0.00,0.00,0.00,0.00,0.00,0.00,793.80,75.00,0.00,868.80,"48,141.20","71,000.00",0.00,"2,381.40",225.00,0.00
10064,น.ส.จุฑามาศ  พานทอง,ฝ่ายปฎิบัติการ-ด้านการผลิต,0917243560,"15,000.00",31.00,"15,000.00",0.00,0.00,0.00,0.00,0.00,0.00,0.00,0.00,0.00,320.00,"32,000.00","2,800.00",0.00,"50,120.00",0.00,0.00,0.00,0.00,0.00,0.00,0.00,0.00,0.00,"1,512.00",75.00,141.00,"1,728.00","48,392.00","72,000.00",622.00,"4,536.00",225.00,0.00
10069,นายวุฒิศักดิ์  มาเจริญ,ฝ่ายปฎิบัติการ-ด้านการผลิต,8760236565,"15,000.00",31.00,"15,000.00",0.00,0.00,0.00,0.00,0.00,0.00,0.00,0.00,0.00,330.00,"33,000.00","2,900.00","10,000.00","61,230.00",0.00,0.00,0.00,0.00,0.00,0.00,0.00,0.00,0.00,"1,008.90",75.00,797.00,"1,880.90","59,349.10","73,000.00","2,391.00","3,026.70",225.00,"29,999.99"
10070,นายภาณุวัฒน์  เลิศวรทรัพย์,ฝ่ายปฎิบัติการ-ด้านการผลิต,1524948435,"15,000.00",31.00,"15,000.00",0.00,0.00,0.00,0.00,0.00,0.00,0.00,0.00,0.00,340.00,"34,000.00","3,000.00","10,000.00","62,340.00",0.00,0.00,0.00,0.00,0.00,0.00,0.00,0.00,0.00,"1,008.90",75.00,"1,047.00","2,130.90","60,209.10","74,000.00","5,985.00","3,026.70",225.00,0.00
10071,นายนนทพัทธ์  อรุณพฤกษากุล,ฝ่ายปฎิบัติการ-ด้านการผลิต,0510496102,"15,000.00",31.00,"15,000.00",0.00,0.00,0.00,0.00,0.00,0.00,0.00,0.00,0.00,350.00,"35,000.00","3,100.00","10,000.00","63,450.00",0.00,0.00,0.00,0.00,0.00,0.00,0.00,0.00,0.00,"1,008.90",75.00,"1,047.00","2,130.90","61,319.10","75,000.00","6,577.00","3,026.70",225.00,0.00
10075,น.ส.สุวิมล  เจริญการค้า,ฝ่ายปฎิบัติการ-ด้านการผลิต,0377147251,"15,000.00",31.00,"15,000.00",0.00,0.00,0.00,0.00,0.00,0.00,0.00,0.00,0.00,360.00,"36,000.00","3,200.00",0.00,"54,560.00",0.00,0.00,0.00,0.00,0.00,0.00,0.00,0.00,0.00,"1,512.00",75.00,79.00,"1,666.00","52,894.00","76,000.00",237.00,"4,536.00",225.00,"15,054.12"
10077,น.ส.อลิสา  ทองมี,ฝ่ายปฎิบัติการ-ด้านการผลิต,0377265921,"15,000.00",31.00,"15,000.00",0.00,0.00,0.00,0.00,0.00,0.00,0.00,0.00,0.00,370.00,"37,000.00","3,300.00",0.00,"55,670.00",0.00,0.00,0.00,0.00,0.00,0.00,0.00,0.00,0.00,907.20,75.00,172.00,"1,154.20","54,515.80","77,000.00","1,829.00","2,721.60",225.00,0.00
10093,น.ส.กมลกาญจน์  วจีนุรักษากุลชัย,ฝ่ายปฎิบัติการ-ด้านการผลิต,0168076966,"15,000.00",31.00,"15,000.00",0.00,0.00,0.00,0.00,0.00,0.00,0.00,0.00,0.00,380.00,"38,000.00","3,400.00","10,000.00","66,780.00",0.00,0.00,0.00,0.00,0.00,0.00,0.00,0.00,0.00,"1,890.00",75.00,"4,697.00","6,662.00","60,118.00","78,000.00","14,091.00","5,670.00",225.00,0.00
10096,นายไกศิน  ดวงศรี,ฝ่ายปฎิบัติการ-ด้านการผลิต,0377324140,"15,000.00",31.00,"15,000.00",0.00,0.00,0.00,0.00,0.00,0.00,0.00,0.00,0.00,390.00,"39,000.00","3,500.00",0.00,"57,890.00",0.00,0.00,0.00,0.00,0.00,0.00,0.00,0.00,0.00,0.00,75.00,"4,981.00","5,056.00","52,834.00","79,000.00","14,943.00",0.00,225.00,0.00
10102,นายพริษฐ์  พฤทธิสาริกร,ฝ่ายปฎิบัติการ-ด้านการผลิต,0450489984,"15,000.00",31.00,"15,000.00",0.00,0.00,0.00,0.00,0.00,0.00,0.00,0.00,0.00,400.00,"40,000.00","3,600.00",0.00,"59,000.00",0.00,0.00,0.00,0.00,0.00,0.00,0.00,0.00,0.00,0.00,75.00,5.00,80.00,"58,920.00","80,000.00",15.00,0.00,225.00,0.00
10104,นายณัฐวัชต์  สุเมธาอักษร,ฝ่ายปฎิบัติการ-ด้านการผลิต,0377195342,"15,000.00",31.00,"15,000.00",0.00,0.00,0.00,0.00,0.00,0.00,0.00,0.00,0.00,410.00,"41,000.00","3,700.00",0.00,"60,110.00",0.00,0.00,0.00,0.00,0.00,0.00,0.00,0.00,0.00,0.00,75.00,55.00,130.00,"59,980.00","81,000.00",420.00,0.00,225.00,0.00
10110,นายศตวรรษ  หาดอ้าน,ฝ่ายปฎิบัติการ-ด้านการผลิต,1524944897,"15,000.00",31.00,"15,000.00",0.00,0.00,0.00,0.00,0.00,0.00,0.00,0.00,0.00,420.00,"42,000.00","3,800.00",0.00,"61,220.00",0.00,0.00,0.00,0.00,0.00,0.00,0.00,0.00,0.00,0.00,75.00,0.00,75.00,"61,145.00","82,000.00",0.00,0.00,150.00,0.00
10111,น.ส.ฤทัยมาศ  วงค์ปันติ,ฝ่ายปฎิบัติการ-ด้านการผลิต,9150317940,"15,000.00",31.00,"15,000.00",0.00,0.00,0.00,0.00,0.00,0.00,0.00,0.00,0.00,430.00,"43,000.00","3,900.00",0.00,"62,330.00",0.00,0.00,0.00,0.00,0.00,0.00,0.00,0.00,0.00,0.00,75.00,0.00,75.00,"62,255.00","83,000.00",0.00,0.00,150.00,0.00
10113,นายนันทพงศ์  ฤทธิ์เดช,ฝ่ายปฎิบัติการ-ด้านการผลิต,0910397132,"15,000.00",31.00,"15,000.00",0.00,0.00,0.00,0.00,0.00,0.00,0.00,0.00,0.00,440.00,"44,000.00","4,000.00",0.00,"63,440.00",0.00,0.00,0.00,0.00,0.00,0.00,0.00,0.00,0.00,0.00,75.00,0.00,75.00,"63,365.00","84,000.00",0.00,0.00,150.00,0.00
10116,นายกิตติพงษ์   เกียรติสูงส่ง,ฝ่ายปฎิบัติการ-ด้านการผลิต,2450861089,"15,000.00",31.00,"15,000.00",0.00,0.00,0.00,0.00,0.00,0.00,0.00,0.00,0.00,450.00,"45,000.00","4,100.00",0.00,"64,550.00",0.00,0.00,0.00,0.00,0.00,0.00,0.00,0.00,0.00,0.00,75.00,0.00,75.00,"64,475.00","85,000.00",0.00,0.00,114.00,0.00
10117,นายบดินทร์   เรือนทิพย์ ,ฝ่ายปฎิบัติการ-ด้านการผลิต,0334026614,"15,000.00",31.00,"15,000.00",0.00,0.00,0.00,0.00,0.00,0.00,0.00,0.00,0.00,460.00,"46,000.00","4,200.00",0.00,"65,660.00",0.00,0.00,0.00,0.00,0.00,0.00,0.00,0.00,0.00,0.00,75.00,356.00,431.00,"65,229.00","86,000.00",356.00,0.00,75.00,0.00
10014,นายคมกริช  แซ่โง้ว,ฝ่ายปฎิบัติการเทคนิค-ด้านวิศวกรรม,0377324280,"15,000.00",31.00,"15,000.00",0.00,0.00,0.00,0.00,0.00,0.00,0.00,0.00,0.00,150.00,"47,000.00","4,300.00",0.00,"66,450.00",0.00,0.00,0.00,0.00,0.00,0.00,0.00,0.00,0.00,607.50,75.00,0.00,682.50,"65,767.50","87,000.00",0.00,"1,822.50",225.00,0.00
10015,นายอัครพล  สุขศรี,ฝ่ายปฎิบัติการเทคนิค-ด้านวิศวกรรม,9404174014,"15,000.00",31.00,"15,000.00",0.00,0.00,0.00,0.00,0.00,0.00,0.00,0.00,0.00,150.00,"48,000.00","4,400.00",0.00,"67,550.00",0.00,0.00,0.00,0.00,0.00,0.00,0.00,0.00,0.00,603.75,75.00,0.00,678.75,"66,871.25","88,000.00",0.00,"1,207.50",225.00,0.00
10016,นายนฤฌา  ซาลิมี,ฝ่ายปฎิบัติการเทคนิค-ด้านวิศวกรรม,0377332069,"15,000.00",31.00,"15,000.00",0.00,0.00,0.00,0.00,0.00,0.00,0.00,0.00,0.00,0.00,"49,000.00","4,500.00",0.00,"68,500.00",0.00,0.00,0.00,0.00,0.00,0.00,0.00,0.00,0.00,"1,154.55",75.00,489.00,"1,718.55","66,781.45","89,000.00","1,499.00","3,463.65",225.00,"19,800.00"
10017,นายณัฐวุฒิ  ไชยโย,ฝ่ายปฎิบัติการเทคนิค-ด้านวิศวกรรม,0377332077,"15,000.00",31.00,"15,000.00",0.00,0.00,0.00,0.00,0.00,0.00,0.00,0.00,0.00,200.00,"50,000.00","4,600.00",0.00,"69,800.00",0.00,0.00,0.00,0.00,0.00,0.00,0.00,0.00,0.00,"1,141.65",75.00,572.00,"1,788.65","68,011.35","90,000.00","1,871.00","3,424.95",225.00,0.00
10023,นายปิโยรส  เลิศล้ำ,ฝ่ายปฎิบัติการเทคนิค-ด้านวิศวกรรม,0377332093,"15,000.00",31.00,"15,000.00",0.00,0.00,0.00,0.00,0.00,0.00,0.00,0.00,0.00,150.00,"51,000.00","4,700.00",0.00,"70,850.00",0.00,0.00,0.00,0.00,0.00,0.00,0.00,0.00,0.00,"1,201.65",75.00,702.00,"1,978.65","68,871.35","91,000.00","2,217.00","3,604.95",225.00,0.00
10024,นายธินวัฒน์  ขุนนคร,ฝ่ายปฎิบัติการเทคนิค-ด้านวิศวกรรม,9150297910,"15,000.00",31.00,"15,000.00",0.00,0.00,0.00,0.00,0.00,0.00,0.00,0.00,0.00,200.00,"52,000.00","4,800.00",0.00,"72,000.00",0.00,0.00,0.00,0.00,0.00,0.00,0.00,0.00,0.00,897.50,75.00,0.00,972.50,"71,027.50","92,000.00",0.00,"2,692.50",225.00,0.00
10031,น.ส.ธนพร  ปิยขจรกุล,ฝ่ายปฎิบัติการเทคนิค-ด้านวิศวกรรม,0330851676,"15,000.00",31.00,"15,000.00",0.00,0.00,0.00,0.00,0.00,0.00,0.00,0.00,0.00,0.00,"53,000.00","4,900.00",0.00,"72,900.00",0.00,0.00,0.00,0.00,0.00,0.00,0.00,0.00,0.00,"1,026.60",75.00,308.00,"1,409.60","71,490.40","93,000.00",924.00,"3,079.80",225.00,"13,526.00"
10032,น.ส.อาภาภรณ์  สมสุข,ฝ่ายปฎิบัติการเทคนิค-ด้านวิศวกรรม,0377324322,"15,000.00",31.00,"15,000.00",0.00,0.00,0.00,0.00,0.00,0.00,0.00,0.00,0.00,0.00,"54,000.00","5,000.00","3,000.00","77,000.00",0.00,0.00,0.00,0.00,0.00,0.00,0.00,0.00,0.00,"1,049.52",75.00,552.00,"1,676.52","75,323.48","94,000.00","1,656.00","3,148.56",225.00,0.00
10036,นายวีรชัย  สุวรรณรัตน์,ฝ่ายปฎิบัติการเทคนิค-ด้านวิศวกรรม,0377332135,"15,000.00",31.00,"15,000.00",0.00,0.00,0.00,0.00,0.00,0.00,0.00,0.00,0.00,800.00,"55,000.00","5,100.00",0.00,"75,900.00",0.00,0.00,0.00,0.00,0.00,0.00,0.00,0.00,0.00,485.10,75.00,0.00,560.10,"75,339.90","95,000.00",0.00,"1,455.30",225.00,0.00
10037,นายสัมพันธ์  พูลพลบ,ฝ่ายปฎิบัติการเทคนิค-ด้านวิศวกรรม,0377157631,"15,000.00",31.00,"15,000.00",0.00,0.00,0.00,0.00,0.00,0.00,0.00,0.00,0.00,900.00,"56,000.00","5,200.00",0.00,"77,100.00",0.00,0.00,0.00,0.00,0.00,0.00,0.00,0.00,0.00,"1,389.50",75.00,116.00,"1,580.50","75,519.50","96,000.00",390.00,"4,168.50",225.00,0.00
10044,นายรังสิมันตุ์  เสาวลักษณ์,ฝ่ายปฎิบัติการเทคนิค-ด้านวิศวกรรม,0330620915,"15,000.00",31.00,"15,000.00",0.00,0.00,0.00,0.00,0.00,0.00,0.00,0.00,0.00,200.00,"57,000.00","5,300.00",0.00,"77,500.00",0.00,0.00,0.00,0.00,0.00,0.00,0.00,0.00,0.00,0.00,63.00,0.00,63.00,"77,437.00","97,000.00",0.00,0.00,189.00,0.00
10065,นายสหธน  คำจันทร์,ฝ่ายปฎิบัติการเทคนิค-ด้านวิศวกรรม,0330949454,"15,000.00",31.00,"15,000.00",0.00,0.00,0.00,0.00,0.00,0.00,0.00,0.00,0.00,150.00,"58,000.00","5,400.00",0.00,"78,550.00",0.00,0.00,0.00,0.00,0.00,0.00,0.00,0.00,0.00,0.00,75.00,16.00,91.00,"78,459.00","98,000.00",87.00,0.00,225.00,0.00
10073,นายธาดา  ชินวินิจกุล,ฝ่ายปฎิบัติการเทคนิค-ด้านวิศวกรรม,0330964115,"15,000.00",31.00,"15,000.00",0.00,0.00,0.00,0.00,0.00,0.00,0.00,0.00,0.00,150.00,"59,000.00","5,500.00",0.00,"79,650.00",0.00,0.00,0.00,0.00,0.00,0.00,0.00,0.00,0.00,922.32,75.00,196.00,"1,193.32","78,456.68","99,000.00",588.00,"2,766.96",225.00,0.00
10086,น.ส.อุรชา  เผือกบางนา,ฝ่ายปฎิบัติการเทคนิค-ด้านวิศวกรรม,2420440964,"15,000.00",31.00,"15,000.00",0.00,0.00,0.00,0.00,0.00,0.00,0.00,0.00,0.00,150.00,"60,000.00","5,600.00",0.00,"80,750.00",0.00,0.00,0.00,0.00,0.00,0.00,0.00,0.00,0.00,"1,100.00",75.00,0.00,"1,175.00","79,575.00","100,000.00",0.00,"3,300.00",225.00,0.00
10118,นายธนโรจน์   สารพัฒน์,ฝ่ายปฎิบัติการเทคนิค-ด้านวิศวกรรม,9404237605,"15,000.00",31.00,"15,000.00",0.00,0.00,0.00,0.00,0.00,0.00,0.00,0.00,0.00,150.00,"61,000.00","5,700.00",0.00,"81,850.00",0.00,0.00,0.00,0.00,0.00,0.00,0.00,0.00,0.00,0.00,53.00,0.00,53.00,"81,797.00","101,000.00",0.00,0.00,53.00,0.00
10119,นายอัครพล  ธูปหอม,ฝ่ายปฎิบัติการเทคนิค-ด้านวิศวกรรม,0100485671,"15,000.00",31.00,"15,000.00",0.00,0.00,0.00,0.00,0.00,0.00,0.00,0.00,0.00,150.00,"62,000.00","5,800.00",0.00,"82,950.00",0.00,0.00,0.00,0.00,0.00,0.00,0.00,0.00,0.00,0.00,53.00,0.00,53.00,"82,897.00","102,000.00",0.00,0.00,53.00,0.00
10120,นายพิษณุ  บุญประดับ,ฝ่ายปฎิบัติการเทคนิค-ด้านวิศวกรรม,0307292862,"15,000.00",31.00,"15,000.00",0.00,0.00,0.00,0.00,0.00,0.00,0.00,0.00,0.00,150.00,"63,000.00","5,900.00",0.00,"84,050.00",0.00,0.00,0.00,0.00,0.00,0.00,0.00,0.00,0.00,0.00,63.00,0.00,63.00,"83,987.00","103,000.00",0.00,0.00,63.00,0.00
10001,น.ส.นภัช  ธฤตวรินทรีย์,งานบริหารสินค้าคงคลัง,0377324272,"15,000.00",31.00,"15,000.00",0.00,0.00,0.00,0.00,0.00,0.00,0.00,0.00,0.00,150.00,"64,000.00","6,000.00",0.00,"85,150.00",0.00,0.00,0.00,0.00,0.00,0.00,0.00,0.00,0.00,"1,309.80",75.00,"1,020.00","2,404.80","82,745.20","104,000.00","3,060.00","3,929.40",225.00,0.00
10019,นายพีรเชฐ  อิสีประดิฐ,งานบริหารสินค้าคงคลัง,0377007331,"15,000.00",31.00,"15,000.00",0.00,0.00,0.00,0.00,0.00,0.00,0.00,0.00,0.00,150.00,"65,000.00","6,100.00","3,000.00","89,250.00",0.00,0.00,0.00,0.00,0.00,0.00,0.00,0.00,0.00,"1,301.55",75.00,"1,143.00","2,519.55","86,730.45","105,000.00","3,429.00","3,904.65",225.00,"17,949.25"
10074,นายสมประสงค์  ขาวกระโทก,งานบริหารสินค้าคงคลัง,9150292390,"15,000.00",31.00,"15,000.00",5.00,289.00,9.00,780.00,0.00,0.00,0.00,0.00,0.00,150.00,"66,000.00","6,200.00",0.00,"88,419.00",0.00,0.00,0.00,0.00,0.00,0.00,0.00,0.00,0.00,0.00,69.00,0.00,69.00,"88,350.00","106,000.00",0.00,0.00,207.00,0.00
10087,นายสิทธิชัย  โรจน์โยธินพิพัฒน์,งานบริหารสินค้าคงคลัง,0330995515,"15,000.00",31.00,"15,000.00",5.00,260.00,9.00,703.00,0.00,0.00,0.00,0.00,0.00,150.00,"67,000.00","6,300.00",0.00,"89,413.00",0.00,0.00,0.00,0.00,0.00,0.00,0.00,0.00,0.00,375.00,63.00,0.00,438.00,"88,975.00","107,000.00",0.00,"1,125.00",189.00,0.00
10008,น.ส.จิราวรรณ  หนูวงษ์,งานควบคุมคุณภาพ,0377324207,"15,000.00",31.00,"15,000.00",0.00,0.00,0.00,0.00,0.00,0.00,0.00,0.00,0.00,150.00,"68,000.00","6,400.00",0.00,"89,550.00",0.00,0.00,0.00,0.00,0.00,0.00,0.00,0.00,0.00,"1,179.00",75.00,417.00,"1,671.00","87,879.00","108,000.00","1,251.00","3,537.00",225.00,"46,479.66"
10009,น.ส.จารุวรรณ  รมผักแว่น,งานควบคุมคุณภาพ,0377324249,"15,000.00",31.00,"15,000.00",0.00,0.00,0.00,0.00,0.00,0.00,0.00,0.00,0.00,150.00,"69,000.00","6,500.00",0.00,"90,650.00",0.00,0.00,0.00,0.00,0.00,0.00,0.00,0.00,0.00,"3,124.80",75.00,502.00,"3,701.80","86,948.20","109,000.00","1,506.00","9,374.40",225.00,0.00
10020,น.ส.บริสุทธิ์  บัวทอง,งานควบคุมคุณภาพ,2384605362,"15,000.00",31.00,"15,000.00",0.00,0.00,0.00,0.00,0.00,0.00,0.00,0.00,0.00,150.00,"70,000.00","6,600.00",0.00,"91,750.00",0.00,0.00,0.00,0.00,0.00,0.00,0.00,0.00,0.00,"1,142.91",75.00,503.00,"1,720.91","90,029.09","110,000.00","1,509.00","3,428.73",225.00,"11,874.00"
10021,น.ส.ดารัตน์  ทองมานิตย์,งานควบคุมคุณภาพ,0377324298,"15,000.00",31.00,"15,000.00",0.00,0.00,0.00,0.00,0.00,0.00,0.00,0.00,0.00,150.00,"71,000.00","6,700.00",0.00,"92,850.00",0.00,0.00,0.00,0.00,0.00,0.00,0.00,0.00,0.00,0.00,75.00,0.00,75.00,"92,775.00","111,000.00",0.00,0.00,225.00,0.00
10029,น.ส.ภาวนา  บูรณะกิจ,งานควบคุมคุณภาพ,0377324330,"15,000.00",31.00,"15,000.00",0.00,0.00,0.00,0.00,0.00,0.00,0.00,0.00,0.00,150.00,"72,000.00","6,800.00",0.00,"93,950.00",0.00,0.00,0.00,0.00,0.00,0.00,0.00,0.00,0.00,"1,077.60",75.00,355.00,"1,507.60","92,442.40","112,000.00","1,065.00","3,232.80",225.00,"22,023.36"
10030,น.ส.ตวงทอง  โชติชุติพงศ์,งานควบคุมคุณภาพ,0377324348,"15,000.00",31.00,"15,000.00",0.00,0.00,0.00,0.00,0.00,0.00,0.00,0.00,0.00,150.00,"73,000.00","6,900.00",0.00,"95,050.00",0.00,0.00,0.00,0.00,0.00,0.00,0.00,0.00,0.00,990.60,75.00,307.00,"1,372.60","93,677.40","113,000.00",921.00,"2,971.80",225.00,0.00
10038,ว่าที่ ร.ต.อภิชาติ  ชาติภูวภัทร,งานควบคุมคุณภาพ,0377324397,"15,000.00",31.00,"15,000.00",0.00,0.00,6.00,"1,126.00",0.00,0.00,0.00,0.00,0.00,150.00,"74,000.00","7,000.00",0.00,"97,276.00",0.00,0.00,0.00,0.00,0.00,0.00,0.00,0.00,0.00,900.42,75.00,217.00,"1,192.42","96,083.58","114,000.00",579.00,"2,701.26",225.00,0.00
10039,น.ส.ชยาภรณ์  วงศ์ศิริเดชชัย,งานควบคุมคุณภาพ,0377324405,"15,000.00",31.00,"15,000.00",0.00,0.00,0.00,0.00,0.00,0.00,0.00,0.00,0.00,150.00,"75,000.00","7,100.00",0.00,"97,250.00",0.00,0.00,0.00,0.00,0.00,0.00,0.00,0.00,0.00,920.70,75.00,138.00,"1,133.70","96,116.30","115,000.00",414.00,"2,762.10",225.00,"13,230.00"
10061,น.ส.ประไพศรี  กระจ่างวุฒิชัย,งานควบคุมคุณภาพ,8550687449,"15,000.00",31.00,"15,000.00",7.00,785.00,0.00,0.00,0.00,0.00,0.00,0.00,0.00,150.00,"76,000.00","7,200.00",0.00,"99,135.00",0.00,0.00,0.00,0.00,0.00,0.00,0.00,0.00,0.00,"1,345.50",75.00,0.00,"1,420.50","97,714.50","116,000.00",0.00,"4,036.50",225.00,0.00
10067,น.ส.เจนจิรา  เฉลิม,งานควบคุมคุณภาพ,9047107926,"15,000.00",31.00,"15,000.00",0.00,0.00,0.00,0.00,0.00,0.00,0.00,0.00,0.00,150.00,"77,000.00","7,300.00",0.00,"99,450.00",0.00,0.00,0.00,0.00,0.00,0.00,0.00,0.00,0.00,922.32,75.00,89.00,"1,086.32","98,363.68","117,000.00",340.00,"2,766.96",225.00,"25,799.01"
10068,น.ส.ณัชชา  หวังในธรรม,งานควบคุมคุณภาพ,0100394188,"15,000.00",31.00,"15,000.00",0.00,0.00,0.00,0.00,0.00,0.00,0.00,0.00,0.00,150.00,"78,000.00","7,400.00",0.00,"100,550.00",0.00,0.00,0.00,0.00,0.00,0.00,0.00,0.00,0.00,843.93,75.00,69.00,987.93,"99,562.07","118,000.00",246.00,"2,531.79",225.00,0.00
10101,น.ส.ไอริณ   สุขขา,งานควบคุมคุณภาพ,9240408709,"15,000.00",31.00,"15,000.00",0.00,0.00,0.00,0.00,0.00,0.00,0.00,0.00,0.00,150.00,"79,000.00","7,500.00",0.00,"101,650.00",0.00,0.00,0.00,0.00,0.00,0.00,0.00,0.00,0.00,0.00,75.00,0.00,75.00,"101,575.00","119,000.00",0.00,0.00,225.00,0.00
10114,น.ส.พิมพิกา  แดงอร่าม,งานควบคุมคุณภาพ,0100494103,"15,000.00",31.00,"15,000.00",0.00,0.00,0.00,0.00,0.00,0.00,0.00,0.00,0.00,150.00,"80,000.00","7,600.00",0.00,"102,750.00",0.00,0.00,0.00,0.00,0.00,0.00,0.00,0.00,0.00,0.00,50.00,0.00,50.00,"102,700.00","120,000.00",0.00,0.00,85.00,0.00
10115,น.ส.ศุภจี   แสนคำปน,งานควบคุมคุณภาพ,2284784515,"15,000.00",31.00,"15,000.00",0.00,0.00,0.00,0.00,0.00,0.00,0.00,0.00,0.00,150.00,"81,000.00","7,700.00",0.00,"103,850.00",0.00,0.00,0.00,0.00,0.00,0.00,0.00,0.00,0.00,0.00,50.00,0.00,50.00,"103,800.00","121,000.00",0.00,0.00,85.00,0.00
10002,น.ส.ดาวรัตติยา  ยุทธ์ธนอุดม,งานประกันคุณภาพ,1424007480,"15,000.00",31.00,"15,000.00",0.00,0.00,0.00,0.00,0.00,0.00,0.00,0.00,0.00,150.00,"82,000.00","7,800.00",0.00,"104,950.00",0.00,0.00,0.00,0.00,0.00,0.00,0.00,0.00,0.00,"1,202.70",75.00,673.00,"1,950.70","102,999.30","122,000.00","2,019.00","3,608.10",225.00,0.00
10007,นางนทีทิพย์  วงค์จันทร์,งานประกันคุณภาพ,0857204903,"15,000.00",31.00,"15,000.00",0.00,0.00,0.00,0.00,0.00,0.00,0.00,0.00,0.00,150.00,"83,000.00","7,900.00",0.00,"106,050.00",0.00,0.00,0.00,0.00,0.00,0.00,0.00,0.00,0.00,"1,379.40",75.00,"1,245.00","2,699.40","103,350.60","123,000.00","3,735.00","4,138.20",225.00,0.00
10072,น.ส.สุธาสินี  อู๋เพชร,งานประกันคุณภาพ,0330962747,"15,000.00",31.00,"15,000.00",0.00,0.00,0.00,0.00,0.00,0.00,0.00,0.00,0.00,150.00,"7,000.00","8,000.00",0.00,"30,150.00",0.00,0.00,0.00,0.00,0.00,0.00,0.00,0.00,0.00,900.00,75.00,160.00,"1,135.00","29,015.00","124,000.00",480.00,"2,700.00",225.00,0.00
10091,น.ส.อนัญญา  ทรัพย์ทิพยรัตนา,งานประกันคุณภาพ,1680879689,"15,000.00",31.00,"15,000.00",0.00,0.00,0.00,0.00,0.00,0.00,0.00,0.00,0.00,150.00,"8,000.00","8,100.00","10,000.00","41,250.00",0.00,0.00,0.00,0.00,0.00,0.00,0.00,0.00,0.00,780.00,75.00,466.00,"1,321.00","39,929.00","125,000.00","1,398.00","2,340.00",225.00,0.00
10100,นายกฤต  เพชรสุวรรณ,งานประกันคุณภาพ,9207316630,"15,000.00",31.00,"15,000.00",0.00,0.00,0.00,0.00,0.00,0.00,0.00,0.00,0.00,150.00,"9,000.00","8,200.00","10,000.00","42,350.00",0.00,0.00,0.00,0.00,0.00,0.00,0.00,0.00,0.00,0.00,75.00,"3,931.00","4,006.00","38,344.00","126,000.00","11,793.00",0.00,225.00,0.00
10033,น.ส.ดาลัด  วโรภาสตระกูล,งานทะเบียนและกฎหมายยา,0377324371,"15,000.00",31.00,"15,000.00",0.00,0.00,0.00,0.00,0.00,0.00,0.00,0.00,0.00,150.00,"10,000.00","8,300.00","10,000.00","43,450.00",0.00,0.00,0.00,0.00,0.00,0.00,0.00,0.00,0.00,"1,249.59",75.00,"1,825.00","3,149.59","40,300.41","127,000.00","5,475.00","3,748.77",225.00,0.00
10078,น.ส.กฤตย์ภัสสร  ศรีโยยศ,งานการเงินและบัญชี,9299057019,"15,000.00",31.00,"15,000.00",5.50,413.00,6.00,675.00,0.00,0.00,0.00,0.00,0.00,150.00,"11,000.00","8,400.00",0.00,"35,638.00",0.00,0.00,0.00,0.00,0.00,0.00,0.00,0.00,0.00,540.00,75.00,0.00,615.00,"35,023.00","128,000.00",0.00,"1,620.00",225.00,0.00
10092,นายชานุวัตร  ภวภูตานนท์ ณ มหาสารคาม,งานการเงินและบัญชี,0798019766,"15,000.00",31.00,"15,000.00",0.00,0.00,0.00,0.00,0.00,0.00,0.00,0.00,0.00,150.00,"12,000.00","8,500.00",0.00,"35,650.00",0.00,0.00,0.00,0.00,0.00,0.00,0.00,0.00,0.00,450.00,75.00,0.00,525.00,"35,125.00","129,000.00",0.00,"1,350.00",225.00,0.00
10034,นาย ธนันธร  บวรสกุลวงศ์,งานวิทยาการและเทคโนโลยีสนับสนุนการผลิต,0377332119,"15,000.00",31.00,"15,000.00",0.00,0.00,0.00,0.00,0.00,0.00,0.00,0.00,0.00,150.00,"13,000.00","8,600.00",0.00,"36,750.00",0.00,0.00,0.00,0.00,0.00,0.00,0.00,0.00,0.00,"1,039.05",75.00,385.00,"1,499.05","35,250.95","130,000.00","1,155.00","3,117.15",225.00,0.00
10053,นายวิชญะ  เต็มศรี,งานวิทยาการและเทคโนโลยีสนับสนุนการผลิต,0377158241,"15,000.00",31.00,"15,000.00",0.00,0.00,0.00,0.00,0.00,0.00,0.00,0.00,0.00,150.00,"14,000.00","8,700.00",0.00,"37,850.00",0.00,0.00,0.00,0.00,0.00,0.00,0.00,0.00,0.00,898.20,75.00,157.00,"1,130.20","36,719.80","131,000.00",471.00,"2,694.60",225.00,0.00
10095,น.ส.ประทุมรัตน์  ทองเกตุ,งานวิทยาการและเทคโนโลยีสนับสนุนการผลิต,0850213042,"15,000.00",31.00,"15,000.00",0.00,0.00,0.00,0.00,0.00,0.00,0.00,0.00,0.00,150.00,"15,000.00","8,800.00",0.00,"38,950.00",0.00,0.00,0.00,0.00,0.00,0.00,0.00,0.00,0.00,"4,000.00",75.00,538.00,"4,613.00","34,337.00","132,000.00","2,108.00","4,000.00",225.00,0.00
10046,น.ส.ประนอม  สมรทอง,สนับสนุนการผลิตด้านสาธารณะสุข,0250592243,"15,000.00",31.00,"15,000.00",0.00,0.00,0.00,0.00,0.00,0.00,0.00,0.00,0.00,150.00,"16,000.00","8,900.00",0.00,"40,050.00",0.00,0.00,0.00,0.00,0.00,0.00,0.00,0.00,0.00,0.00,60.00,0.00,60.00,"39,990.00","133,000.00",0.00,0.00,180.00,0.00
10047,น.ส.บุญงาม  สร้างดี,สนับสนุนการผลิตด้านสาธารณะสุข,0250592250,"15,000.00",31.00,"15,000.00",0.00,0.00,0.00,0.00,0.00,0.00,0.00,0.00,0.00,150.00,"17,000.00","9,000.00",0.00,"41,150.00",0.00,0.00,0.00,0.00,0.00,0.00,0.00,0.00,0.00,0.00,60.00,0.00,60.00,"41,090.00","134,000.00",0.00,0.00,180.00,0.00
10048,น.ส.บุญถิรา  กรึงไกร,สนับสนุนการผลิตด้านสาธารณะสุข,0307278903,"15,000.00",31.00,"15,000.00",0.00,0.00,0.00,0.00,0.00,0.00,0.00,0.00,0.00,150.00,"18,000.00","9,100.00",0.00,"42,250.00",0.00,0.00,0.00,0.00,0.00,0.00,0.00,0.00,0.00,0.00,60.00,0.00,60.00,"42,190.00","135,000.00",0.00,0.00,180.00,0.00
10049,น.ส.ผุสรัตน์  ทองมานิตย์,สนับสนุนการผลิตด้านสาธารณะสุข,0250591963,"15,000.00",31.00,"15,000.00",0.00,0.00,0.00,0.00,0.00,0.00,0.00,0.00,0.00,150.00,"19,000.00","9,200.00",0.00,"43,350.00",0.00,0.00,0.00,0.00,0.00,0.00,0.00,0.00,0.00,359.10,60.00,0.00,419.10,"42,930.90","136,000.00",0.00,718.20,180.00,0.00
10050,น.ส.วิภาพร  เฮมสันเทียะ,สนับสนุนการผลิตด้านสาธารณะสุข,0250592391,"15,000.00",31.00,"15,000.00",0.00,0.00,0.00,0.00,0.00,0.00,0.00,0.00,0.00,150.00,"20,000.00","9,300.00",0.00,"44,450.00",0.00,0.00,0.00,0.00,0.00,0.00,0.00,0.00,0.00,0.00,60.00,0.00,60.00,"44,390.00","137,000.00",0.00,0.00,180.00,0.00
10051,น.ส.อรัญญา  กองแสน,สนับสนุนการผลิตด้านสาธารณะสุข,0307279034,"15,000.00",31.00,"15,000.00",0.00,0.00,0.00,0.00,0.00,0.00,0.00,0.00,0.00,150.00,"21,000.00","9,400.00",0.00,"45,550.00",0.00,0.00,0.00,0.00,0.00,0.00,0.00,0.00,0.00,359.10,60.00,0.00,419.10,"45,130.90","138,000.00",0.00,718.20,180.00,0.00
10083,น.ส.จันทร์ทิมา  สิงห์ชัย,สนับสนุนการผลิตด้านสาธารณะสุข,1254700287,"15,000.00",31.00,"15,000.00",0.00,0.00,0.00,0.00,0.00,0.00,0.00,0.00,0.00,150.00,"22,000.00","9,500.00",0.00,"46,650.00",0.00,0.00,0.00,0.00,0.00,0.00,0.00,0.00,0.00,"1,489.50",50.00,0.00,"1,539.50","45,110.50","139,000.00",0.00,"4,468.50",150.00,0.00
10084,น.ส.เบญจวรรณ  ปักษาวรรณ์,สนับสนุนการผลิตด้านสาธารณะสุข,0250596988,"15,000.00",31.00,"15,000.00",0.00,0.00,0.00,0.00,0.00,0.00,0.00,0.00,0.00,150.00,"23,000.00","9,600.00",0.00,"47,750.00",0.00,0.00,0.00,0.00,0.00,0.00,0.00,0.00,0.00,"1,489.50",50.00,0.00,"1,539.50","46,210.50","140,000.00",0.00,"4,468.50",150.00,0.00
10085,น.ส.สมหญิง  นิ่มน้อย,สนับสนุนการผลิตด้านสาธารณะสุข,2284736390,"15,000.00",31.00,"15,000.00",0.00,0.00,0.00,0.00,0.00,0.00,0.00,0.00,0.00,150.00,"24,000.00","9,700.00",0.00,"48,850.00",0.00,0.00,0.00,0.00,0.00,0.00,0.00,0.00,0.00,496.50,50.00,0.00,546.50,"48,303.50","141,000.00",0.00,"1,489.50",150.00,0.00
10089,น.ส.วรรณา  ใจเกษิม,สนับสนุนการผลิตด้านสาธารณะสุข,0100479633,"15,000.00",31.00,"15,000.00",0.00,0.00,0.00,0.00,0.00,0.00,0.00,0.00,0.00,150.00,"25,000.00","9,800.00",0.00,"49,950.00",0.00,0.00,0.00,0.00,0.00,0.00,0.00,0.00,0.00,297.90,50.00,0.00,347.90,"49,602.10","142,000.00",0.00,893.70,150.00,0.00
10105,น.ส.พรวลัย  รุ่งเรือง,สนับสนุนการผลิตด้านสาธารณะสุข,0307302299,"15,000.00",31.00,"15,000.00",0.00,0.00,0.00,0.00,0.00,0.00,0.00,0.00,0.00,150.00,"26,000.00","9,900.00",0.00,"51,050.00",0.00,0.00,0.00,0.00,0.00,0.00,0.00,0.00,0.00,0.00,50.00,0.00,50.00,"51,000.00","143,000.00",0.00,0.00,150.00,0.00
10081,นางพัชรา  คูถิรตระการ,บริหาร,0238030043,"15,000.00",31.00,"15,000.00",0.00,0.00,0.00,0.00,0.00,0.00,0.00,0.00,0.00,150.00,"27,000.00","10,000.00",0.00,"52,150.00",0.00,0.00,0.00,0.00,0.00,0.00,0.00,0.00,0.00,0.00,0.00,"4,267.00","4,267.00","47,883.00","144,000.00","12,801.00",0.00,0.00,"100,000.00"
10082,นายธำรงวุฒิ  คูถิรตระการ,บริหาร,9390009729,"15,000.00",31.00,"15,000.00",0.00,0.00,0.00,0.00,0.00,0.00,0.00,0.00,0.00,150.00,"28,000.00","10,100.00",0.00,"53,250.00",0.00,0.00,0.00,0.00,0.00,0.00,0.00,0.00,0.00,0.00,0.00,"2,025.00","2,025.00","51,225.00","145,000.00","6,075.00",0.00,0.00,"100,000.00"
10109,นายเอกลักษณ์  เหมจินดา,บริหาร,8550775921,"15,000.00",31.00,"15,000.00",0.00,0.00,0.00,0.00,0.00,0.00,0.00,0.00,0.00,150.00,"29,000.00","10,200.00",0.00,"54,350.00",0.00,0.00,0.00,0.00,0.00,0.00,0.00,0.00,0.00,0.00,75.00,"2,000.00","2,075.00","52,275.00","146,000.00","35,800.00",0.00,150.00,0.00