สาขา,แผนก,ชื่อแผนก,รหัส,ชื่อพนักงาน,รวมแผนก,รวมสาขา,วัน,เงินเดือน,ตำแหน่ง,OTx1,OTx1.5,OTx2,OTx3,OT อื่นๆ,ค่ากะ,เงินได้หน้าที่,สวัสดิการ,เงินรางวัล,โบนัส,เงินได้อื่น,รวมรับ,ขาดงาน,มาสาย,หักกลับก่อน,หักบกพร่อง,เบิกล่วงหน้า,หักสวัสดิการ,หักอื่นๆ,หักภาษี,หักกองทุน,หัก ปกสค.,ค้ำประกัน,หักเงินกู้,หักเงินผ่อน,รวมจ่าย,สุทธิ,เงินได้สะสมต่อปี,ภาษีสะสมต่อปี,เงินสะสมกองทุนต่อปี,เงินประกันสังคมต่อปี,ค่าลดหย่อนอื่น ๆ
1001,1,จัดซื้อจัดจ้าง,10010,น.ส.สวย  งดงาม,จัดซื้อจัดจ้าง,สำนักงานใหญ่,30.00,"15,000.00",0.00,0.00,0.00,0.00,0.00,0.00,0.00,0.00,0.00,0.00,0.00,0.00,"15,030.00",0.00,0.00,0.00,0.00,0.00,0.00,0.00,184.00,"1,090.35",750.00,0.00,0.00,0.00,"2,024.35","13,005.65","45,000.00",654.00,"3,271.05",225.00,0.00
1001,1,จัดซื้อจัดจ้าง,10058,นายดี  มงคล,จัดซื้อจัดจ้าง,สำนักงานใหญ่,30.00,"16,000.00",0.00,0.00,0.00,0.00,0.00,0.00,0.00,0.00,0.00,0.00,0.00,0.00,"16,030.00",0.00,0.00,0.00,0.00,0.00,0.00,0.00,0.00,738.00,750.00,0.00,0.00,0.00,"1,488.00","14,542.00","46,000.00",0.00,"2,214.00",225.00,0.00
1001,1,จัดซื้อจัดจ้าง,10090,นายเอ  ประกอบ,จัดซื้อจัดจ้าง,สำนักงานใหญ่,30.00,"17,000.00",0.00,0.00,0.00,0.00,0.00,0.00,0.00,0.00,0.00,0.00,0.00,0.00,"17,030.00",0.00,0.00,0.00,0.00,0.00,0.00,0.00,"3,978.00",0.00,750.00,0.00,0.00,0.00,"4,728.00","12,302.00","47,000.00",5.00,"2,600.00",225.00,0.00
1001,2,ทรัพยากรบุคคลและธุรการ,10035,นายประสาร ทองเอก,ทรัพยากรบุคคลและธุรการ,สำนักงานใหญ่,30.00,"10,000.00",0.00,0.00,0.00,0.00,0.00,0.00,0.00,0.00,0.00,0.00,0.00,0.00,"10,030.00",0.00,0.00,0.00,0.00,0.00,0.00,0.00,162.00,922.05,500.00,0.00,0.00,0.00,"1,584.05","8,445.95","48,000.00","4,570.00",0.00,150.00,0.00
1001,2,ทรัพยากรบุคคลและธุรการ,10094,น.ส.สุดสวย มากมี,ทรัพยากรบุคคลและธุรการ,สำนักงานใหญ่,30.00,"10,000.00",0.00,0.00,0.00,0.00,0.00,0.00,0.00,0.00,0.00,0.00,0.00,0.00,"10,030.00",0.00,0.00,0.00,0.00,0.00,0.00,0.00,0.00,0.00,500.00,0.00,0.00,0.00,500.00,"9,530.00","49,000.00",588.00,"2,766.15",225.00,0.00
1001,3,เทคโนโลยีสารสนเทศ,10041,นายโชดดี มีบุญ,เทคโนโลยีสารสนเทศ,สำนักงานใหญ่,30.00,"10,000.00",0.00,0.00,0.00,0.00,0.00,0.00,0.00,0.00,0.00,0.00,0.00,0.00,"10,030.00",0.00,0.00,0.00,0.00,0.00,0.00,0.00,0.00,774.90,500.00,0.00,0.00,0.00,"1,274.90","8,755.10","50,000.00","1,814.00","4,230.00",225.00,0.00
1001,3,เทคโนโลยีสารสนเทศ,10088,นายมงคล ดีงาม,เทคโนโลยีสารสนเทศ,สำนักงานใหญ่,30.00,"12,000.00",0.00,0.00,0.00,0.00,0.00,0.00,0.00,0.00,0.00,0.00,0.00,0.00,"12,030.00",0.00,0.00,0.00,0.00,0.00,0.00,0.00,0.00,"1,150.00",600.00,0.00,0.00,0.00,"1,750.00","10,280.00","51,000.00",0.00,"2,324.70",225.00,0.00
1001,4,อาชีวอนามัยและความปลอดภัย,10066,นายหนึ่ง ,อาชีวอนามัยและความปลอดภัย,สำนักงานใหญ่,30.00,"11,900.00",0.00,0.00,0.00,0.00,0.00,0.00,0.00,"3,000.00",0.00,0.00,0.00,0.00,"14,930.00",0.00,0.00,0.00,0.00,0.00,0.00,0.00,227.00,869.40,595.00,0.00,0.00,0.00,"1,691.40","13,238.60","52,000.00",0.00,"3,450.00",225.00,0.00
1001,5,ผลิต,10003,นายมิ่ง คุณงาม,ผลิต,สำนักงานใหญ่,30.00,"11,500.00",0.00,0.00,0.00,0.00,0.00,0.00,0.00,0.00,0.00,0.00,0.00,0.00,"11,530.00",0.00,0.00,0.00,0.00,0.00,0.00,0.00,586.00,"2,015.00",575.00,0.00,0.00,0.00,"3,176.00","8,354.00","53,000.00",201.00,"2,500.00",225.00,0.00
1001,5,ผลิต,10004,น.ส.สวยมาก  ที่สุด,ผลิต,สำนักงานใหญ่,30.00,"10,000.00",0.00,0.00,0.00,0.00,0.00,0.00,0.00,0.00,0.00,0.00,0.00,0.00,"10,030.00",0.00,0.00,0.00,0.00,0.00,0.00,0.00,608.00,"3,662.40",500.00,0.00,0.00,0.00,"4,770.40","5,259.60","54,000.00","2,590.00","7,495.80",225.00,0.00
1001,5,ผลิต,10005,นายสาม เชื้อไทย,ผลิต,สำนักงานใหญ่,30.00,"16,000.00",0.00,0.00,0.00,0.00,0.00,0.00,0.00,0.00,0.00,0.00,0.00,0.00,"16,030.00",0.00,0.00,0.00,0.00,0.00,0.00,0.00,589.00,"1,186.20",750.00,0.00,0.00,0.00,"2,525.20","13,504.80","55,000.00","4,396.00","10,987.20",225.00,"40,700.00"
1001,5,ผลิต,10089,นายอนันต์ มาดี,ผลิต,สำนักงานใหญ่,30.00,"10,000.00",0.00,0.00,0.00,0.00,0.00,0.00,0.00,0.00,0.00,0.00,0.00,0.00,"10,030.00",0.00,0.00,0.00,0.00,0.00,0.00,0.00,0.00,0.00,500.00,0.00,0.00,0.00,500.00,"9,530.00","56,000.00","2,445.00","3,677.22",225.00,0.00
1001,5,ผลิต,10093,นายเจริญ รุ่งเรือง,ผลิต,สำนักงานใหญ่,30.00,"10,000.00",0.00,0.00,0.00,0.00,0.00,0.00,0.00,"10,000.00",0.00,0.00,0.00,0.00,"20,030.00",0.00,0.00,0.00,0.00,0.00,0.00,0.00,"4,936.00",0.00,500.00,0.00,0.00,0.00,"5,436.00","14,594.00","57,000.00","4,224.00","4,324.86",225.00,"4,572.00"
1001,6,วิศวกรรม,10014,นายสยาม แสนสุข,วิศวกรรม,สำนักงานใหญ่,30.00,"14,000.00",0.00,"1,350.00",0.00,0.00,380.00,0.00,250.00,0.00,250.00,0.00,0.00,0.00,"16,260.00",0.00,0.00,0.00,0.00,0.00,0.00,0.00,0.00,607.50,700.00,0.00,0.00,0.00,"1,307.50","14,952.50","58,000.00","2,709.00",0.00,225.00,0.00
1001,6,วิศวกรรม,10015,นายแทนไท ทองสุข,วิศวกรรม,สำนักงานใหญ่,30.00,"10,000.00",0.00,671.00,0.00,0.00,0.00,0.00,200.00,0.00,200.00,0.00,0.00,0.00,"11,101.00",0.00,0.00,0.00,0.00,0.00,0.00,0.00,0.00,0.00,500.00,0.00,0.00,0.00,500.00,"10,601.00","59,000.00","5,692.00",0.00,225.00,0.00
1001,6,วิศวกรรม,10016,นายประเสริฐ แสนดี,วิศวกรรม,สำนักงานใหญ่,30.00,"12,000.00",0.00,0.00,0.00,0.00,0.00,0.00,0.00,0.00,0.00,0.00,0.00,0.00,"12,030.00",0.00,0.00,0.00,0.00,0.00,0.00,0.00,455.00,"1,154.55",600.00,0.00,0.00,0.00,"2,209.55","9,820.45","60,000.00","5,052.00","6,828.00",225.00,"25,656.00"
1001,6,วิศวกรรม,10017,นายวสันต์  สุขดี,วิศวกรรม,สำนักงานใหญ่,30.00,"15,000.00",0.00,"1,269.00",0.00,0.00,0.00,0.00,0.00,0.00,0.00,0.00,0.00,0.00,"16,299.00",0.00,0.00,0.00,0.00,0.00,0.00,0.00,585.00,"1,141.65",750.00,0.00,0.00,0.00,"2,476.65","13,822.35","61,000.00","12,930.00","9,240.75",225.00,0.00
1001,6,วิศวกรรม,10023,นายสุชาติ คำเมือง,วิศวกรรม,สำนักงานใหญ่,30.00,"10,000.00",0.00,0.00,0.00,0.00,0.00,0.00,0.00,0.00,0.00,0.00,0.00,0.00,"10,030.00",0.00,0.00,0.00,0.00,0.00,0.00,0.00,614.00,"1,201.65",500.00,0.00,0.00,0.00,"2,315.65","7,714.35","62,000.00",945.00,"4,999.55",225.00,0.00
1001,7,บริหารสินค้าคงคลัง,10001,นายสมการ ทดสอบ,บริหารสินค้าคงคลัง,สำนักงานใหญ่,30.00,"11,000.00",0.00,0.00,0.00,0.00,0.00,0.00,0.00,0.00,0.00,0.00,0.00,0.00,"11,030.00",0.00,0.00,0.00,0.00,0.00,0.00,0.00,952.00,"1,309.80",550.00,0.00,0.00,0.00,"2,811.80","8,218.20","63,000.00",744.00,"4,791.10",225.00,0.00
1001,7,บริหารสินค้าคงคลัง,10019,นายพงศกร ดอนเมือง,บริหารสินค้าคงคลัง,สำนักงานใหญ่,30.00,"13,000.00",0.00,0.00,0.00,0.00,0.00,0.00,0.00,"3,000.00",0.00,0.00,0.00,0.00,"16,030.00",0.00,0.00,0.00,0.00,0.00,0.00,0.00,"1,076.00","1,301.55",650.00,0.00,0.00,0.00,"3,027.55","13,002.45","64,000.00","1,205.00",0.00,225.00,0.00
1001,7,บริหารสินค้าคงคลัง,10074,นายวันเดียว  หายาก,บริหารสินค้าคงคลัง,สำนักงานใหญ่,30.00,"10,000.00",0.00,0.00,0.00,0.00,0.00,0.00,0.00,0.00,0.00,0.00,0.00,0.00,"10,030.00",0.00,0.00,0.00,0.00,0.00,0.00,0.00,0.00,0.00,500.00,0.00,0.00,0.00,500.00,"9,530.00","65,000.00","1,470.00","6,207.00",225.00,"43,343.00"
1001,7,บริหารสินค้าคงคลัง,10087,นายชนะ ชัยยา,บริหารสินค้าคงคลัง,สำนักงานใหญ่,30.00,"10,000.00",0.00,0.00,0.00,0.00,0.00,0.00,0.00,0.00,0.00,0.00,0.00,0.00,"10,030.00",0.00,0.00,0.00,0.00,0.00,0.00,0.00,0.00,0.00,500.00,0.00,0.00,0.00,500.00,"9,530.00","66,000.00",0.00,"2,324.70",225.00,0.00
1001,8,ควบคุมคุณภาพ,10039,นายมหาศาล มากมี,ควบคุมคุณภาพ,สำนักงานใหญ่,30.00,"10,000.00",0.00,0.00,0.00,0.00,0.00,0.00,0.00,0.00,0.00,0.00,0.00,0.00,"10,030.00",0.00,0.00,0.00,0.00,0.00,0.00,0.00,105.00,920.70,500.00,0.00,0.00,0.00,"1,525.70","8,504.30","67,000.00",0.00,"2,324.70",225.00,0.00
1001,8,ควบคุมคุณภาพ,10061,นายนิดหน่อย เพียบพร้อม,ควบคุมคุณภาพ,สำนักงานใหญ่,30.00,"10,000.00",0.00,0.00,0.00,0.00,0.00,0.00,0.00,0.00,0.00,0.00,0.00,0.00,"10,030.00",0.00,0.00,0.00,0.00,0.00,0.00,0.00,17.00,0.00,500.00,0.00,0.00,0.00,517.00,"9,513.00","68,000.00",516.00,"2,721.60",225.00,0.00
1001,8,ควบคุมคุณภาพ,10067,นายมากมี เหลือล้น,ควบคุมคุณภาพ,สำนักงานใหญ่,30.00,"10,000.00",0.00,0.00,0.00,0.00,0.00,0.00,0.00,0.00,0.00,0.00,0.00,0.00,"10,030.00",0.00,0.00,0.00,0.00,0.00,0.00,0.00,55.00,922.32,500.00,0.00,0.00,0.00,"1,477.32","8,552.68","69,000.00",0.00,"2,324.70",225.00,0.00
1001,8,ควบคุมคุณภาพ,10068,นายทศพล คิดค้น,ควบคุมคุณภาพ,สำนักงานใหญ่,30.00,"12,000.00",0.00,0.00,0.00,0.00,0.00,0.00,0.00,0.00,0.00,0.00,0.00,0.00,"12,030.00",0.00,0.00,0.00,0.00,0.00,0.00,0.00,78.00,0.00,600.00,0.00,0.00,0.00,678.00,"11,352.00","70,000.00","1,693.00","2,721.60",225.00,0.00
1001,10,งานทะเบียนและกฎหมายยา,10033,นายไทย บุญดี,งานทะเบียนและกฎหมายยา,สำนักงานใหญ่,30.00,"12,500.00",0.00,0.00,0.00,0.00,0.00,0.00,0.00,"10,000.00",0.00,0.00,0.00,0.00,"22,530.00",0.00,0.00,0.00,0.00,0.00,0.00,0.00,"1,758.00","1,249.59",625.00,0.00,0.00,0.00,"3,632.59","18,897.41","71,000.00",0.00,"2,381.40",225.00,0.00
1001,11,ฝ่ายบัญชีและการเงิน,10078,นายดำ ขาวนวล,ฝ่ายบัญชีและการเงิน,สำนักงานใหญ่,30.00,"12,800.00",0.00,0.00,0.00,0.00,0.00,0.00,0.00,0.00,0.00,0.00,0.00,0.00,"12,830.00",0.00,0.00,0.00,0.00,0.00,0.00,0.00,0.00,540.00,640.00,0.00,0.00,0.00,"1,180.00","11,650.00","72,000.00",622.00,"4,536.00",225.00,0.00
1001,11,ฝ่ายบัญชีและการเงิน,10092,นายสว่าง หมอยา,ฝ่ายบัญชีและการเงิน,สำนักงานใหญ่,30.00,"13,000.00",0.00,0.00,0.00,0.00,0.00,0.00,0.00,0.00,0.00,0.00,0.00,0.00,"13,030.00",0.00,0.00,0.00,0.00,0.00,0.00,0.00,0.00,0.00,650.00,0.00,0.00,0.00,650.00,"12,380.00","73,000.00","2,391.00","3,026.70",225.00,"29,999.99"
1001,12,ฝ่ายวิทยาการและเทคโนโลยีสนับสนุนการผลิต,10031,นายอาสา หาญชัย,ฝ่ายวิทยาการและเทคโนโลยีสนับสนุนการผลิต,สำนักงานใหญ่,30.00,"14,000.00",0.00,0.00,"1,497.00",0.00,0.00,0.00,0.00,0.00,0.00,0.00,0.00,0.00,"15,527.00",0.00,0.00,0.00,0.00,0.00,0.00,0.00,349.00,"1,026.60",700.00,0.00,0.00,0.00,"2,075.60","13,451.40","74,000.00","5,985.00","3,026.70",225.00,0.00
1001,12,ฝ่ายวิทยาการและเทคโนโลยีสนับสนุนการผลิต,10034,นายขาว วิวดี,ฝ่ายวิทยาการและเทคโนโลยีสนับสนุนการผลิต,สำนักงานใหญ่,30.00,"18,000.00",0.00,0.00,325.00,0.00,0.00,0.00,0.00,0.00,0.00,0.00,0.00,0.00,"18,355.00",0.00,0.00,0.00,0.00,0.00,0.00,0.00,367.00,"1,039.05",750.00,0.00,0.00,0.00,"2,156.05","16,198.95","75,000.00","6,577.00","3,026.70",225.00,0.00